Sampling recordings - Multple Time Periods • ARUtools
…
s <- clean_site_index(example_sites_clean,
  name_date = c("date_time_start", "date_time_end")
)
m <- clean_metadata(project_files = example_files) |>
  add_sites(s) |>
  calc_sun() |>
  mutate(
    time_period = if_else(hour(date_time) < 6, "early", "late"),
    year = year(date)
  )
#> Extracting ARU info...
#> Extracting Dates and Times...
#> Joining by columns `date_time_start` and `date_time_end`
m
#> # A tibble: 42 × 18
#>    file_name    type  path  aru_id manufacturer model aru_type site_id tz_offset
#>    <chr>        <chr> <chr> <chr>  <chr>        <chr> <chr>    <chr>   <chr>    
#>  1 P01_1_20200… wav   a_BA… BARLT… Frontier La… BAR-… BARLT    P01_1   -0400    
#>  2 P01_1_20200… wav   a_BA… BARLT… Frontier La… BAR-… BARLT    P01_1   -0400    
#>  3 P02_1_20200… wav   a_S4… S4A01… Wildlife Ac… Song… SongMet… P02_1   NA       
#>  4 P02_1_20200… wav   a_S4… S4A01… Wildlife Ac… Song… SongMet… P02_1   NA       
#>  5 P03_1_20200… wav   a_BA… BARLT… Frontier La… BAR-… BARLT    P03_1   -0400    
#>  6 P04_1_20200… wav   a_BA… BARLT… Frontier La… BAR-… BARLT    P04_1   -0400    
#>  7 P04_1_20200… wav   a_BA… BARLT… Frontier La… BAR-… BARLT    P04_1   -0400    
#>  8 P05_1_20200… wav   a_BA… BARLT… Frontier La… BAR-… BARLT    P05_1   -0400    
#>  9 P06_1_20200… wav   a_BA… BARLT… Frontier La… BAR-… BARLT    P06_1   -0400    
#> 10 P07_1_20200… wav   a_S4… S4A01… Wildlife Ac… Song… SongMet… P07_1   NA       
#> # ℹ 32 more rows
#> # ℹ 9 more variables: date_time <dttm>, date <date>, longitude <dbl>,
#> #   latitude <dbl>, tz <chr>, t2sr <dbl>, t2ss <dbl>, time_period <chr>,
#> #   year <dbl>
…
Here we’ll calculate a separate set of selection weights for early
and late recordings in each year. Then we’ll group recordings by site,
year, and time period.

w <- m |>
  nest(data = c(-time_period, -year)) |>
  mutate(
    params = p,
    sel = map2(data, params, calc_selection_weights)
  ) |>
  unnest(sel) |>
  select(-"data", -"params") |>
  mutate(selection_group = glue("{site_id}_{year}_{time_period}"))
w
#> # A tibble: 21 × 27
#>    time_period  year file_name    type  path  aru_id manufacturer model aru_type
#>    <chr>       <dbl> <chr>        <chr> <chr> <chr>  <chr>        <chr> <chr>   
#>  1 early        2020 P01_1_20200… wav   a_BA… BARLT… Frontier La… BAR-… BARLT   
#>  2 early        2020 P02_1_20200… wav   a_S4… S4A01… Wildlife Ac… Song… SongMet…
#>  3 early        2020 P06_1_20200… wav   a_BA… BARLT… Frontier La… BAR-… BARLT   
#>  4 early        2020 P07_1_20200… wav   a_S4… S4A01… Wildlife Ac… Song… SongMet…
#>  5 early        2020 P09_1_20200… wav   a_S4… S4A02… Wildlife Ac… Song… SongMet…
#>  6 early        2020 P01_1_20200… wav   j_BA… BARLT… Frontier La… BAR-… BARLT   
#>  7 early        2020 P02_1_20200… wav   j_S4… S4A01… Wildlife Ac… Song… SongMet…
#>  8 early        2020 P06_1_20200… wav   j_BA… BARLT… Frontier La… BAR-… BARLT   
#>  9 early        2020 P07_1_20200… wav   j_S4… S4A01… Wildlife Ac… Song… SongMet…
#> 10 early        2020 P09_1_20200… wav   j_S4… S4A02… Wildlife Ac… Song… SongMet…
#> # ℹ 11 more rows
#> # ℹ 18 more variables: site_id <chr>, tz_offset <chr>, date_time <dttm>,
#> #   date <date>, longitude <dbl>, latitude <dbl>, tz <chr>, t2sr <dbl>,
#> #   t2ss <dbl>, doy <dbl>, psel_by <chr>, psel_min <dbl>, psel_doy <dbl>,
#> #   psel <dbl>, psel_scaled <dbl>, psel_std <dbl>, psel_normalized <dbl>,
#> #   selection_group <glue>
…
