Calculate Selection Weights — calc_selection_weights • ARUtools
…
calc_selection_weights(m, params = params)
#> # A tibble: 27 × 21
#>    file_name  type  path  aru_type aru_id site_id date_time           date      
#>    <chr>      <chr> <chr> <chr>    <chr>  <chr>   <dttm>              <date>    
#>  1 P01_1_202… wav   a_BA… BarLT    BARLT… P01_1   2020-05-03 05:20:00 2020-05-03
#>  2 P02_1_202… wav   a_S4… SongMet… S4A01… P02_1   2020-05-04 05:25:00 2020-05-04
#>  3 P02_1_202… wav   a_S4… SongMet… S4A01… P02_1   2020-05-05 07:30:00 2020-05-05
#>  4 P03_1_202… wav   a_BA… BarLT    BARLT… P03_1   2020-05-06 10:00:00 2020-05-06
#>  5 P06_1_202… wav   a_BA… BarLT    BARLT… P06_1   2020-05-09 05:20:00 2020-05-09
#>  6 P07_1_202… wav   a_S4… SongMet… S4A01… P07_1   2020-05-09 05:25:00 2020-05-09
#>  7 P07_1_202… wav   a_S4… SongMet… S4A01… P07_1   2020-05-10 07:30:00 2020-05-10
#>  8 P08_1_202… wav   a_BA… BarLT    BARLT… P08_1   2020-05-11 10:00:00 2020-05-11
#>  9 P09_1_202… wav   a_S4… SongMet… S4A02… P09_1   2020-05-11 05:00:00 2020-05-11
#> 10 P01_1_202… wav   j_BA… BarLT    BARLT… P01_1   2020-05-03 05:20:00 2020-05-03
#> # ℹ 17 more rows
#> # ℹ 13 more variables: longitude <dbl>, latitude <dbl>, tz <chr>, t2sr <dbl>,
#> #   t2ss <dbl>, doy <dbl>, psel_by <chr>, psel_min <dbl>, psel_doy <dbl>,
#> #   psel <dbl>, psel_scaled <dbl>, psel_std <dbl>, psel_normalized <dbl>
…
