Check problems in output of `clean_metadata()` — check_problems • ARUtools
…
A data frame summarizing the metadata by site_id, aru_type, aru_id,
and (optionally) by date. Presents the number of files, directories, and days
worth of recordings, as well as the minimum and maximum recording times.

    Examples

m <- clean_metadata(project_files = example_files, pattern_aru_id = "test")
#> Extracting ARU info...
#> Extracting Dates and Times...
#> Identified possible problems with metadata extraction:
#> ✖ No ARU ids were successfully detected (42/42)

check_problems(m)
#> # A tibble: 42 × 5
#>    path                            aru_id site_id date_time           date      
#>    <chr>                           <chr>  <chr>   <dttm>              <date>    
#>  1 a_BARLT10962_P01_1/P01_1_20200… NA     P01_1   2020-05-02 05:00:00 2020-05-02
#>  2 a_BARLT10962_P01_1/P01_1_20200… NA     P01_1   2020-05-03 05:20:00 2020-05-03
#>  3 a_BARLT10962_P03_1/P03_1_20200… NA     P03_1   2020-05-06 10:00:00 2020-05-06
#>  4 a_BARLT10962_P05_1/P05_1_20200… NA     P05_1   2020-05-07 05:00:00 2020-05-07
#>  5 a_BARLT10962_P06_1/P06_1_20200… NA     P06_1   2020-05-09 05:20:00 2020-05-09
#>  6 a_BARLT10962_P08_1/P08_1_20200… NA     P08_1   2020-05-11 10:00:00 2020-05-11
#>  7 a_BARLT11111_P04_1/P04_1_20200… NA     P04_1   2020-05-06 05:00:00 2020-05-06
#>  8 a_BARLT11111_P04_1/P04_1_20200… NA     P04_1   2020-05-07 03:25:00 2020-05-07
#>  9 a_S4A01234_P02_1/P02_1_2020050… NA     P02_1   2020-05-04 05:25:00 2020-05-04
#> 10 a_S4A01234_P02_1/P02_1_2020050… NA     P02_1   2020-05-05 07:30:00 2020-05-05
#> # ℹ 32 more rows
…
