Extract and clean ARU metadata from file names — clean_metadata • ARUtools
…
    Note that times are extracted by first combining the date, date/time
separator and the time patterns. This means that if there is a problem with
this combination, dates might be extracted but date/times will not. This
mismatch can be used to determine which part of a pattern needs to be
tweaked.

See vignette("customizing", package = "ARUtools") for details on
customizing clean_metadata() for your project.

    Examples

clean_metadata(project_files = example_files)
#> Extracting ARU info...
#> Extracting Dates and Times...
#> # A tibble: 42 × 8
#>    file_name  type  path  aru_type aru_id site_id date_time           date      
#>    <chr>      <chr> <chr> <chr>    <chr>  <chr>   <dttm>              <date>    
#>  1 P01_1_202… wav   a_BA… BarLT    BARLT… P01_1   2020-05-02 05:00:00 2020-05-02
#>  2 P01_1_202… wav   a_BA… BarLT    BARLT… P01_1   2020-05-03 05:20:00 2020-05-03
#>  3 P02_1_202… wav   a_S4… SongMet… S4A01… P02_1   2020-05-04 05:25:00 2020-05-04
#>  4 P02_1_202… wav   a_S4… SongMet… S4A01… P02_1   2020-05-05 07:30:00 2020-05-05
#>  5 P03_1_202… wav   a_BA… BarLT    BARLT… P03_1   2020-05-06 10:00:00 2020-05-06
#>  6 P04_1_202… wav   a_BA… BarLT    BARLT… P04_1   2020-05-06 05:00:00 2020-05-06
#>  7 P04_1_202… wav   a_BA… BarLT    BARLT… P04_1   2020-05-07 03:25:00 2020-05-07
#>  8 P05_1_202… wav   a_BA… BarLT    BARLT… P05_1   2020-05-07 05:00:00 2020-05-07
#>  9 P06_1_202… wav   a_BA… BarLT    BARLT… P06_1   2020-05-09 05:20:00 2020-05-09
#> 10 P07_1_202… wav   a_S4… SongMet… S4A01… P07_1   2020-05-09 05:25:00 2020-05-09
#> # ℹ 32 more rows
…
