Calculate Selection Weights — calc_selection_weights • ARUtools
…
calc_selection_weights(m, params = params)
#> # A tibble: 27 × 24
#>    file_name    type  path  aru_id manufacturer model aru_type site_id tz_offset
#>    <chr>        <chr> <chr> <chr>  <chr>        <chr> <chr>    <chr>   <chr>    
#>  1 P01_1_20200… wav   a_BA… BARLT… Frontier La… BAR-… BARLT    P01_1   -0400    
#>  2 P02_1_20200… wav   a_S4… S4A01… Wildlife Ac… Song… SongMet… P02_1   NA       
#>  3 P02_1_20200… wav   a_S4… S4A01… Wildlife Ac… Song… SongMet… P02_1   NA       
#>  4 P03_1_20200… wav   a_BA… BARLT… Frontier La… BAR-… BARLT    P03_1   -0400    
#>  5 P06_1_20200… wav   a_BA… BARLT… Frontier La… BAR-… BARLT    P06_1   -0400    
#>  6 P07_1_20200… wav   a_S4… S4A01… Wildlife Ac… Song… SongMet… P07_1   NA       
#>  7 P07_1_20200… wav   a_S4… S4A01… Wildlife Ac… Song… SongMet… P07_1   NA       
#>  8 P08_1_20200… wav   a_BA… BARLT… Frontier La… BAR-… BARLT    P08_1   -0400    
#>  9 P09_1_20200… wav   a_S4… S4A02… Wildlife Ac… Song… SongMet… P09_1   NA       
#> 10 P01_1_20200… wav   j_BA… BARLT… Frontier La… BAR-… BARLT    P01_1   -0400    
#> # ℹ 17 more rows
#> # ℹ 15 more variables: date_time <dttm>, date <date>, longitude <dbl>,
#> #   latitude <dbl>, tz <chr>, t2sr <dbl>, t2ss <dbl>, doy <dbl>, psel_by <chr>,
#> #   psel_min <dbl>, psel_doy <dbl>, psel <dbl>, psel_scaled <dbl>,
#> #   psel_std <dbl>, psel_normalized <dbl>
…
