Check problems in output of clean_metadata() — check_problems • ARUtools
…
    A data frame summarizing the metadata by site_id, aru_type, aru_id,
and (optionally) by date. Presents the number of files, directories, and days
worth of recordings, as well as the minimum and maximum recording times.

    Examples

m <- clean_metadata(project_files = example_files, pattern_aru_id = "test")
#> Extracting ARU info...
#> Extracting Dates and Times...
#> Identified possible problems with metadata extraction:
#> ✖ No ARU ids were successfully detected (42/42)

check_problems(m)
#> # A tibble: 42 × 6
#>    path                  aru_id site_id tz_offset date_time           date      
#>    <chr>                 <chr>  <chr>   <chr>     <dttm>              <date>    
#>  1 a_BARLT10962_P01_1/P… NA     P01_1   -0400     2020-05-02 05:00:00 2020-05-02
#>  2 a_BARLT10962_P01_1/P… NA     P01_1   -0400     2020-05-03 05:20:00 2020-05-03
#>  3 a_S4A01234_P02_1/P02… NA     P02_1   NA        2020-05-04 05:25:00 2020-05-04
#>  4 a_S4A01234_P02_1/P02… NA     P02_1   NA        2020-05-05 07:30:00 2020-05-05
#>  5 a_BARLT10962_P03_1/P… NA     P03_1   -0400     2020-05-06 10:00:00 2020-05-06
#>  6 a_BARLT11111_P04_1/P… NA     P04_1   -0400     2020-05-06 05:00:00 2020-05-06
#>  7 a_BARLT11111_P04_1/P… NA     P04_1   -0400     2020-05-07 03:25:00 2020-05-07
#>  8 a_BARLT10962_P05_1/P… NA     P05_1   -0400     2020-05-07 05:00:00 2020-05-07
#>  9 a_BARLT10962_P06_1/P… NA     P06_1   -0400     2020-05-09 05:20:00 2020-05-09
#> 10 a_S4A01234_P07_1/P07… NA     P07_1   NA        2020-05-09 05:25:00 2020-05-09
#> # ℹ 32 more rows
…
