Getting started with ARUtools • ARUtools
…
First things first, we’ll clean up the meta data associated with the
files.

m <- clean_metadata(project_files = example_files)
#> Extracting ARU info...
#> Extracting Dates and Times...

Because our example files follow the standard formats for Site ID,
ARU Id, and date/time, we can extract all the information without having
to change any of the default arguments.

m
#> # A tibble: 42 × 8
#>    file_name  type  path  aru_type aru_id site_id date_time           date      
#>    <chr>      <chr> <chr> <chr>    <chr>  <chr>   <dttm>              <date>    
#>  1 P01_1_202… wav   a_BA… BarLT    BARLT… P01_1   2020-05-02 05:00:00 2020-05-02
#>  2 P01_1_202… wav   a_BA… BarLT    BARLT… P01_1   2020-05-03 05:20:00 2020-05-03
#>  3 P03_1_202… wav   a_BA… BarLT    BARLT… P03_1   2020-05-06 10:00:00 2020-05-06
#>  4 P05_1_202… wav   a_BA… BarLT    BARLT… P05_1   2020-05-07 05:00:00 2020-05-07
#>  5 P06_1_202… wav   a_BA… BarLT    BARLT… P06_1   2020-05-09 05:20:00 2020-05-09
#>  6 P08_1_202… wav   a_BA… BarLT    BARLT… P08_1   2020-05-11 10:00:00 2020-05-11
#>  7 P04_1_202… wav   a_BA… BarLT    BARLT… P04_1   2020-05-06 05:00:00 2020-05-06
#>  8 P04_1_202… wav   a_BA… BarLT    BARLT… P04_1   2020-05-07 03:25:00 2020-05-07
#>  9 P02_1_202… wav   a_S4… SongMet… S4A01… P02_1   2020-05-04 05:25:00 2020-05-04
#> 10 P02_1_202… wav   a_S4… SongMet… S4A01… P02_1   2020-05-05 07:30:00 2020-05-05
#> # ℹ 32 more rows
…
Now let’s add this site-related information to our metadata.

m <- add_sites(m, sites)
#> Joining by columns `date_time_start` and `date_time_end`
m
#> # A tibble: 42 × 12
#>    file_name  type  path  aru_type aru_id site_id date_time           date      
#>    <chr>      <chr> <chr> <chr>    <chr>  <chr>   <dttm>              <date>    
#>  1 P01_1_202… wav   a_BA… BarLT    BARLT… P01_1   2020-05-02 05:00:00 2020-05-02
#>  2 P01_1_202… wav   a_BA… BarLT    BARLT… P01_1   2020-05-03 05:20:00 2020-05-03
#>  3 P01_1_202… wav   j_BA… BarLT    BARLT… P01_1   2020-05-02 05:00:00 2020-05-02
#>  4 P01_1_202… wav   j_BA… BarLT    BARLT… P01_1   2020-05-03 05:20:00 2020-05-03
#>  5 P01_1_202… wav   o_BA… BarLT    BARLT… P01_1   2020-05-02 05:00:00 2020-05-02
#>  6 P01_1_202… wav   o_BA… BarLT    BARLT… P01_1   2020-05-03 05:20:00 2020-05-03
#>  7 P02_1_202… wav   a_S4… SongMet… S4A01… P02_1   2020-05-04 05:25:00 2020-05-04
#>  8 P02_1_202… wav   a_S4… SongMet… S4A01… P02_1   2020-05-05 07:30:00 2020-05-05
#>  9 P02_1_202… wav   j_S4… SongMet… S4A01… P02_1   2020-05-04 05:25:00 2020-05-04
#> 10 P02_1_202… wav   j_S4… SongMet… S4A01… P02_1   2020-05-05 07:30:00 2020-05-05
#> # ℹ 32 more rows
#> # ℹ 4 more variables: longitude <dbl>, latitude <dbl>, plot <chr>,
#> #   subplot <chr>
…
The second option is that each ARU unit was set up to record in the
local timezone where it was placed. If this is the case, specify
tz = "local" and the calc_sun() function will
use coordinates to determine local timezones.

(See the Dealing with Timezones vignette for more details).

In our example, let’s assume that the ARUs were set up in each
location they were deployed. So we’ll use tz = "local", the
default setting.

m <- calc_sun(m)
m
#> # A tibble: 42 × 15
#>    file_name  type  path  aru_type aru_id site_id date_time           date      
#>    <chr>      <chr> <chr> <chr>    <chr>  <chr>   <dttm>              <date>    
#>  1 P01_1_202… wav   a_BA… BarLT    BARLT… P01_1   2020-05-02 05:00:00 2020-05-02
#>  2 P01_1_202… wav   a_BA… BarLT    BARLT… P01_1   2020-05-03 05:20:00 2020-05-03
#>  3 P01_1_202… wav   j_BA… BarLT    BARLT… P01_1   2020-05-02 05:00:00 2020-05-02
#>  4 P01_1_202… wav   j_BA… BarLT    BARLT… P01_1   2020-05-03 05:20:00 2020-05-03
#>  5 P01_1_202… wav   o_BA… BarLT    BARLT… P01_1   2020-05-02 05:00:00 2020-05-02
#>  6 P01_1_202… wav   o_BA… BarLT    BARLT… P01_1   2020-05-03 05:20:00 2020-05-03
#>  7 P02_1_202… wav   a_S4… SongMet… S4A01… P02_1   2020-05-04 05:25:00 2020-05-04
#>  8 P02_1_202… wav   a_S4… SongMet… S4A01… P02_1   2020-05-05 07:30:00 2020-05-05
#>  9 P02_1_202… wav   j_S4… SongMet… S4A01… P02_1   2020-05-04 05:25:00 2020-05-04
#> 10 P02_1_202… wav   j_S4… SongMet… S4A01… P02_1   2020-05-05 07:30:00 2020-05-05
#> # ℹ 32 more rows
#> # ℹ 7 more variables: longitude <dbl>, latitude <dbl>, plot <chr>,
#> #   subplot <chr>, tz <chr>, t2sr <dbl>, t2ss <dbl>
…
