Sampling recordings - Multple Time Periods • ARUtools
…
s <- clean_site_index(example_sites_clean,
                       name_date = c("date_time_start", "date_time_end"))
m <- clean_metadata(project_files = example_files) |>
  add_sites(s) |>
  calc_sun() |>
  mutate(time_period = if_else(hour(date_time) < 6, "early", "late"),
         year = year(date))
#> Extracting ARU info...
#> Extracting Dates and Times...
#> Joining by columns `date_time_start` and `date_time_end`
m
#> # A tibble: 42 × 15
#>    file_name  type  path  aru_type aru_id site_id date_time           date      
#>    <chr>      <chr> <chr> <chr>    <chr>  <chr>   <dttm>              <date>    
#>  1 P01_1_202… wav   a_BA… BarLT    BARLT… P01_1   2020-05-02 05:00:00 2020-05-02
#>  2 P01_1_202… wav   a_BA… BarLT    BARLT… P01_1   2020-05-03 05:20:00 2020-05-03
#>  3 P02_1_202… wav   a_S4… SongMet… S4A01… P02_1   2020-05-04 05:25:00 2020-05-04
#>  4 P02_1_202… wav   a_S4… SongMet… S4A01… P02_1   2020-05-05 07:30:00 2020-05-05
#>  5 P03_1_202… wav   a_BA… BarLT    BARLT… P03_1   2020-05-06 10:00:00 2020-05-06
#>  6 P04_1_202… wav   a_BA… BarLT    BARLT… P04_1   2020-05-06 05:00:00 2020-05-06
#>  7 P04_1_202… wav   a_BA… BarLT    BARLT… P04_1   2020-05-07 03:25:00 2020-05-07
#>  8 P05_1_202… wav   a_BA… BarLT    BARLT… P05_1   2020-05-07 05:00:00 2020-05-07
#>  9 P06_1_202… wav   a_BA… BarLT    BARLT… P06_1   2020-05-09 05:20:00 2020-05-09
#> 10 P07_1_202… wav   a_S4… SongMet… S4A01… P07_1   2020-05-09 05:25:00 2020-05-09
#> # ℹ 32 more rows
#> # ℹ 7 more variables: longitude <dbl>, latitude <dbl>, tz <chr>, t2sr <dbl>,
#> #   t2ss <dbl>, time_period <chr>, year <dbl>
…
Now we can calculate selection weights

Here we’ll calculate a separate set of selection weights for early
and late recordings in each year. Then we’ll group recordings by site,
year, and time period.

w <- m |>
  nest(data = c(-time_period, -year)) |>
  mutate(params = p,
         sel = map2(data, params, calc_selection_weights)) |>
  unnest(sel) |>
  select(-"data", -"params") |>
  mutate(selection_group = glue("{site_id}_{year}_{time_period}"))
w
#> # A tibble: 21 × 24
#>    time_period  year file_name               type  path  aru_type aru_id site_id
#>    <chr>       <dbl> <chr>                   <chr> <chr> <chr>    <chr>  <chr>  
#>  1 early        2020 P01_1_20200503T052000_… wav   a_BA… BarLT    BARLT… P01_1  
#>  2 early        2020 P02_1_20200504T052500_… wav   a_S4… SongMet… S4A01… P02_1  
#>  3 early        2020 P06_1_20200509T052000_… wav   a_BA… BarLT    BARLT… P06_1  
#>  4 early        2020 P07_1_20200509T052500_… wav   a_S4… SongMet… S4A01… P07_1  
#>  5 early        2020 P09_1_20200511T050000_… wav   a_S4… SongMet… S4A02… P09_1  
#>  6 early        2020 P01_1_20200503T052000_… wav   j_BA… BarLT    BARLT… P01_1  
#>  7 early        2020 P02_1_20200504T052500_… wav   j_S4… SongMet… S4A01… P02_1  
#>  8 early        2020 P06_1_20200509T052000_… wav   j_BA… BarLT    BARLT… P06_1  
#>  9 early        2020 P07_1_20200509T052500_… wav   j_S4… SongMet… S4A01… P07_1  
#> 10 early        2020 P09_1_20200511T050000_… wav   j_S4… SongMet… S4A02… P09_1  
#> # ℹ 11 more rows
#> # ℹ 16 more variables: date_time <dttm>, date <date>, longitude <dbl>,
#> #   latitude <dbl>, tz <chr>, t2sr <dbl>, t2ss <dbl>, doy <dbl>, psel_by <chr>,
#> #   psel_min <dbl>, psel_doy <dbl>, psel <dbl>, psel_scaled <dbl>,
#> #   psel_std <dbl>, psel_normalized <dbl>, selection_group <glue>
…
