Working with spatial data • ARUtools
…
library(ARUtools)
library(sf)
library(dplyr)

Here we’ll cover some workflows using spatial data. For a general
workflow, best take a look at the “Getting started with ARUtools”
first.

We’ll start with our metadata data frame.

m <- clean_metadata(project_files = example_files)
#> Extracting ARU info...
#> Extracting Dates and Times...
m
#> # A tibble: 42 × 8
#>    file_name  type  path  aru_type aru_id site_id date_time           date      
#>    <chr>      <chr> <chr> <chr>    <chr>  <chr>   <dttm>              <date>    
#>  1 P01_1_202… wav   a_BA… BarLT    BARLT… P01_1   2020-05-02 05:00:00 2020-05-02
#>  2 P01_1_202… wav   a_BA… BarLT    BARLT… P01_1   2020-05-03 05:20:00 2020-05-03
#>  3 P02_1_202… wav   a_S4… SongMet… S4A01… P02_1   2020-05-04 05:25:00 2020-05-04
#>  4 P02_1_202… wav   a_S4… SongMet… S4A01… P02_1   2020-05-05 07:30:00 2020-05-05
#>  5 P03_1_202… wav   a_BA… BarLT    BARLT… P03_1   2020-05-06 10:00:00 2020-05-06
#>  6 P04_1_202… wav   a_BA… BarLT    BARLT… P04_1   2020-05-06 05:00:00 2020-05-06
#>  7 P04_1_202… wav   a_BA… BarLT    BARLT… P04_1   2020-05-07 03:25:00 2020-05-07
#>  8 P05_1_202… wav   a_BA… BarLT    BARLT… P05_1   2020-05-07 05:00:00 2020-05-07
#>  9 P06_1_202… wav   a_BA… BarLT    BARLT… P06_1   2020-05-09 05:20:00 2020-05-09
#> 10 P07_1_202… wav   a_S4… SongMet… S4A01… P07_1   2020-05-09 05:25:00 2020-05-09
#> # ℹ 32 more rows
…
Note that we still have a spatial data set.

Now let’s add this site-related information to our metadata.

m <- add_sites(m, sites)
#> Joining by columns `date_time_start` and `date_time_end`
m
#> Simple feature collection with 42 features and 8 fields
#> Geometry type: POINT
#> Dimension:     XY
#> Bounding box:  xmin: -91.38 ymin: 45 xmax: -84.45 ymax: 52.68
#> Geodetic CRS:  WGS 84
#> # A tibble: 42 × 9
#>    file_name  type  path  aru_type aru_id site_id date_time           date      
#>  * <chr>      <chr> <chr> <chr>    <chr>  <chr>   <dttm>              <date>    
#>  1 P01_1_202… wav   a_BA… BarLT    BARLT… P01_1   2020-05-02 05:00:00 2020-05-02
#>  2 P01_1_202… wav   a_BA… BarLT    BARLT… P01_1   2020-05-03 05:20:00 2020-05-03
#>  3 P02_1_202… wav   a_S4… SongMet… S4A01… P02_1   2020-05-04 05:25:00 2020-05-04
#>  4 P02_1_202… wav   a_S4… SongMet… S4A01… P02_1   2020-05-05 07:30:00 2020-05-05
#>  5 P03_1_202… wav   a_BA… BarLT    BARLT… P03_1   2020-05-06 10:00:00 2020-05-06
#>  6 P04_1_202… wav   a_BA… BarLT    BARLT… P04_1   2020-05-06 05:00:00 2020-05-06
#>  7 P04_1_202… wav   a_BA… BarLT    BARLT… P04_1   2020-05-07 03:25:00 2020-05-07
#>  8 P05_1_202… wav   a_BA… BarLT    BARLT… P05_1   2020-05-07 05:00:00 2020-05-07
#>  9 P06_1_202… wav   a_BA… BarLT    BARLT… P06_1   2020-05-09 05:20:00 2020-05-09
#> 10 P07_1_202… wav   a_S4… SongMet… S4A01… P07_1   2020-05-09 05:25:00 2020-05-09
#> # ℹ 32 more rows
#> # ℹ 1 more variable: geometry <POINT [°]>

Again our output is as a spatial data set.

Let’s continue by adding times to sunrise/sunset.

m <- calc_sun(m)
m
#> Simple feature collection with 42 features and 11 fields
#> Geometry type: POINT
#> Dimension:     XY
#> Bounding box:  xmin: -91.38 ymin: 45 xmax: -84.45 ymax: 52.68
#> Geodetic CRS:  WGS 84
#> # A tibble: 42 × 12
#>    file_name  type  path  aru_type aru_id site_id date_time           date      
#>    <chr>      <chr> <chr> <chr>    <chr>  <chr>   <dttm>              <date>    
#>  1 P01_1_202… wav   a_BA… BarLT    BARLT… P01_1   2020-05-02 05:00:00 2020-05-02
#>  2 P01_1_202… wav   a_BA… BarLT    BARLT… P01_1   2020-05-03 05:20:00 2020-05-03
#>  3 P02_1_202… wav   a_S4… SongMet… S4A01… P02_1   2020-05-04 05:25:00 2020-05-04
#>  4 P02_1_202… wav   a_S4… SongMet… S4A01… P02_1   2020-05-05 07:30:00 2020-05-05
#>  5 P03_1_202… wav   a_BA… BarLT    BARLT… P03_1   2020-05-06 10:00:00 2020-05-06
#>  6 P04_1_202… wav   a_BA… BarLT    BARLT… P04_1   2020-05-06 05:00:00 2020-05-06
#>  7 P04_1_202… wav   a_BA… BarLT    BARLT… P04_1   2020-05-07 03:25:00 2020-05-07
#>  8 P05_1_202… wav   a_BA… BarLT    BARLT… P05_1   2020-05-07 05:00:00 2020-05-07
#>  9 P06_1_202… wav   a_BA… BarLT    BARLT… P06_1   2020-05-09 05:20:00 2020-05-09
#> 10 P07_1_202… wav   a_S4… SongMet… S4A01… P07_1   2020-05-09 05:25:00 2020-05-09
#> # ℹ 32 more rows
#> # ℹ 4 more variables: tz <chr>, t2sr <dbl>, t2ss <dbl>, geometry <POINT [°]>
…
sites <- sites[-1, ] # Omit that first site

m <- add_sites(m, sites)
#> Joining by columns `date_time_start` and `date_time_end`
#> Identified possible problems with metadata extraction:
#> ✖ Not all files were matched to a site reference (6/42)
#> • Consider adjusting the `by` argument
#> Warning in add_sites(m, sites): Cannot have missing coordinates in spatial data frames
#> • Returning non-spatial data frame
m
#> # A tibble: 42 × 10
#>    file_name  type  path  aru_type aru_id site_id date_time           date      
#>    <chr>      <chr> <chr> <chr>    <chr>  <chr>   <dttm>              <date>    
#>  1 P01_1_202… wav   a_BA… BarLT    BARLT… P01_1   2020-05-02 05:00:00 2020-05-02
#>  2 P01_1_202… wav   a_BA… BarLT    BARLT… P01_1   2020-05-03 05:20:00 2020-05-03
#>  3 P02_1_202… wav   a_S4… SongMet… S4A01… P02_1   2020-05-04 05:25:00 2020-05-04
#>  4 P02_1_202… wav   a_S4… SongMet… S4A01… P02_1   2020-05-05 07:30:00 2020-05-05
#>  5 P03_1_202… wav   a_BA… BarLT    BARLT… P03_1   2020-05-06 10:00:00 2020-05-06
#>  6 P04_1_202… wav   a_BA… BarLT    BARLT… P04_1   2020-05-06 05:00:00 2020-05-06
#>  7 P04_1_202… wav   a_BA… BarLT    BARLT… P04_1   2020-05-07 03:25:00 2020-05-07
#>  8 P05_1_202… wav   a_BA… BarLT    BARLT… P05_1   2020-05-07 05:00:00 2020-05-07
#>  9 P06_1_202… wav   a_BA… BarLT    BARLT… P06_1   2020-05-09 05:20:00 2020-05-09
#> 10 P07_1_202… wav   a_S4… SongMet… S4A01… P07_1   2020-05-09 05:25:00 2020-05-09
#> # ℹ 32 more rows
#> # ℹ 2 more variables: longitude <dbl>, latitude <dbl>
…
m <- clean_metadata(project_files = example_files) |>
  filter(date > "2020-05-03") # Filter out recordings that don't match a site
#> Extracting ARU info...
#> Extracting Dates and Times...

m <- add_sites(m, sites)
#> Joining by columns `date_time_start` and `date_time_end`
m
#> Simple feature collection with 36 features and 8 fields
#> Geometry type: POINT
#> Dimension:     XY
#> Bounding box:  xmin: -91.38 ymin: 45 xmax: -84.45 ymax: 52.68
#> Geodetic CRS:  WGS 84
#> # A tibble: 36 × 9
#>    file_name  type  path  aru_type aru_id site_id date_time           date      
#>  * <chr>      <chr> <chr> <chr>    <chr>  <chr>   <dttm>              <date>    
#>  1 P02_1_202… wav   a_S4… SongMet… S4A01… P02_1   2020-05-04 05:25:00 2020-05-04
#>  2 P02_1_202… wav   a_S4… SongMet… S4A01… P02_1   2020-05-05 07:30:00 2020-05-05
#>  3 P03_1_202… wav   a_BA… BarLT    BARLT… P03_1   2020-05-06 10:00:00 2020-05-06
#>  4 P04_1_202… wav   a_BA… BarLT    BARLT… P04_1   2020-05-06 05:00:00 2020-05-06
#>  5 P04_1_202… wav   a_BA… BarLT    BARLT… P04_1   2020-05-07 03:25:00 2020-05-07
#>  6 P05_1_202… wav   a_BA… BarLT    BARLT… P05_1   2020-05-07 05:00:00 2020-05-07
#>  7 P06_1_202… wav   a_BA… BarLT    BARLT… P06_1   2020-05-09 05:20:00 2020-05-09
#>  8 P07_1_202… wav   a_S4… SongMet… S4A01… P07_1   2020-05-09 05:25:00 2020-05-09
#>  9 P07_1_202… wav   a_S4… SongMet… S4A01… P07_1   2020-05-10 07:30:00 2020-05-10
#> 10 P08_1_202… wav   a_BA… BarLT    BARLT… P08_1   2020-05-11 10:00:00 2020-05-11
#> # ℹ 26 more rows
#> # ℹ 1 more variable: geometry <POINT [°]>
…
